\BOOKMARK [-1][-]{part.1}{\376\377\000I\000\040\000I\000n\000t\000r\000o\000d\000u\000c\000t\000i\000o\000n}{}% 1
\BOOKMARK [0][-]{chapter.1}{\376\377\000B\000a\000c\000k\000g\000r\000o\000u\000n\000d}{part.1}% 2
\BOOKMARK [1][-]{section.1.1}{\376\377\000B\000i\000o\000l\000o\000g\000i\000c\000a\000l\000\040\000b\000a\000c\000k\000g\000r\000o\000u\000n\000d}{chapter.1}% 3
\BOOKMARK [2][-]{subsection.1.1.1}{\376\377\000G\000e\000n\000e\000t\000i\000c\000\040\000v\000a\000r\000i\000a\000t\000i\000o\000n}{section.1.1}% 4
\BOOKMARK [2][-]{subsection.1.1.2}{\376\377\000H\000a\000p\000l\000o\000t\000y\000p\000e}{section.1.1}% 5
\BOOKMARK [2][-]{subsection.1.1.3}{\376\377\000G\000e\000n\000e\000t\000i\000c\000\040\000r\000e\000c\000o\000m\000b\000i\000n\000a\000t\000i\000o\000n}{section.1.1}% 6
\BOOKMARK [2][-]{subsection.1.1.4}{\376\377\000G\000e\000n\000o\000m\000e\000\040\000s\000e\000q\000u\000e\000n\000c\000i\000n\000g}{section.1.1}% 7
\BOOKMARK [1][-]{section.1.2}{\376\377\000D\000a\000t\000a\000\040\000f\000o\000r\000m\000a\000t\000s}{chapter.1}% 8
\BOOKMARK [0][-]{chapter.2}{\376\377\000P\000r\000o\000b\000l\000e\000m\000\040\000s\000t\000a\000t\000e\000m\000e\000n\000t}{part.1}% 9
\BOOKMARK [1][-]{section.2.1}{\376\377\000P\000h\000a\000s\000i\000n\000g\000\040\000p\000r\000o\000b\000l\000e\000m}{chapter.2}% 10
\BOOKMARK [2][-]{subsection.2.1.1}{\376\377\000T\000h\000e\000\040\000i\000m\000p\000o\000r\000t\000a\000n\000c\000e\000\040\000o\000f\000\040\000p\000h\000a\000s\000e\000\040\000i\000n\000f\000o\000r\000m\000a\000t\000i\000o\000n}{section.2.1}% 11
\BOOKMARK [2][-]{subsection.2.1.2}{\376\377\000A\000m\000b\000i\000g\000u\000i\000t\000y\000\040\000a\000n\000d\000\040\000D\000a\000t\000a\000\040\000s\000o\000u\000r\000c\000e\000s}{section.2.1}% 12
\BOOKMARK [1][-]{section.2.2}{\376\377\000R\000e\000l\000a\000t\000e\000d\000\040\000w\000o\000r\000k\000s}{chapter.2}% 13
\BOOKMARK [2][-]{subsection.2.2.1}{\376\377\000P\000o\000p\000u\000l\000a\000t\000i\000o\000n\000\040\000b\000a\000s\000e\000d\000\040\000p\000h\000a\000s\000i\000n\000g}{section.2.2}% 14
\BOOKMARK [2][-]{subsection.2.2.2}{\376\377\000R\000e\000a\000d\000-\000b\000a\000s\000e\000d\000\040\000p\000h\000a\000s\000i\000n\000g}{section.2.2}% 15
\BOOKMARK [2][-]{subsection.2.2.3}{\376\377\000H\000y\000b\000r\000i\000d\000\040\000p\000h\000a\000s\000i\000n\000g}{section.2.2}% 16
\BOOKMARK [1][-]{section.2.3}{\376\377\000O\000b\000j\000e\000c\000t\000i\000v\000e\000s}{chapter.2}% 17
\BOOKMARK [1][-]{section.2.4}{\376\377\000S\000t\000u\000d\000e\000n\000t\000\040\000c\000o\000n\000t\000r\000i\000b\000u\000t\000i\000o\000n}{chapter.2}% 18
\BOOKMARK [1][-]{section.2.5}{\376\377\000O\000u\000t\000l\000i\000n\000e}{chapter.2}% 19
\BOOKMARK [-1][-]{part.2}{\376\377\000I\000I\000\040\000M\000a\000t\000e\000r\000i\000a\000l\000s\000\040\000a\000n\000d\000\040\000M\000e\000t\000h\000o\000d\000s}{}% 20
\BOOKMARK [0][-]{chapter.3}{\376\377\000E\000a\000g\000l\000e\0002\000\040\000p\000h\000a\000s\000i\000n\000g\000\040\000a\000l\000g\000o\000r\000i\000t\000h\000m}{part.2}% 21
\BOOKMARK [1][-]{section.3.1}{\376\377\000A\000l\000g\000o\000r\000i\000t\000h\000m\000\040\000o\000v\000e\000r\000v\000i\000e\000w}{chapter.3}% 22
\BOOKMARK [2][-]{subsection.3.1.1}{\376\377\000S\000t\000e\000p\000\040\0001\000:\000\040\000H\000a\000p\000H\000e\000d\000g\000e\000\040\000d\000a\000t\000a\000\040\000s\000t\000r\000u\000c\000t\000u\000r\000e\000\040\000c\000o\000n\000s\000t\000r\000u\000c\000t\000i\000o\000n}{section.3.1}% 23
\BOOKMARK [2][-]{subsection.3.1.2}{\376\377\000S\000t\000e\000p\000\040\0002\000:\000\040\000E\000x\000p\000l\000o\000r\000a\000t\000i\000o\000n\000\040\000o\000f\000\040\000d\000i\000p\000l\000o\000t\000y\000p\000e\000\040\000s\000p\000a\000c\000e}{section.3.1}% 24
\BOOKMARK [1][-]{section.3.2}{\376\377\000P\000r\000o\000p\000o\000s\000e\000d\000\040\000e\000x\000t\000e\000n\000s\000i\000o\000n}{chapter.3}% 25
\BOOKMARK [0][-]{chapter.4}{\376\377\000H\000y\000b\000r\000i\000d\000\040\000p\000h\000a\000s\000i\000n\000g\000\040\000a\000l\000g\000o\000r\000i\000t\000h\000m}{part.2}% 26
\BOOKMARK [1][-]{section.4.1}{\376\377\000P\000r\000e\000l\000i\000m\000i\000n\000a\000r\000i\000e\000s}{chapter.4}% 27
\BOOKMARK [1][-]{section.4.2}{\376\377\000D\000i\000p\000l\000o\000t\000y\000p\000e\000\040\000p\000r\000o\000b\000a\000b\000i\000l\000i\000t\000y\000\040\000m\000o\000d\000e\000l}{chapter.4}% 28
\BOOKMARK [2][-]{subsection.4.2.1}{\376\377\000H\000a\000p\000l\000o\000t\000y\000p\000e\000\040\000p\000r\000o\000b\000a\000b\000i\000l\000i\000t\000y\000\040\000m\000o\000d\000e\000l}{section.4.2}% 29
\BOOKMARK [2][-]{subsection.4.2.2}{\376\377\000R\000e\000a\000d\000\040\000m\000o\000d\000e\000l}{section.4.2}% 30
\BOOKMARK [1][-]{section.4.3}{\376\377\000H\000a\000p\000l\000o\000t\000y\000p\000e\000\040\000i\000n\000f\000e\000r\000e\000n\000c\000e}{chapter.4}% 31
\BOOKMARK [2][-]{subsection.4.3.1}{\376\377\000H\000i\000d\000d\000e\000n\000\040\000M\000a\000r\000k\000o\000v\000\040\000m\000o\000d\000e\000l}{section.4.3}% 32
\BOOKMARK [2][-]{subsection.4.3.2}{\376\377\000S\000t\000a\000t\000e\000\040\000s\000p\000a\000c\000e\000\040\000e\000x\000p\000l\000o\000r\000a\000t\000i\000o\000n}{section.4.3}% 33
\BOOKMARK [0][-]{chapter.5}{\376\377\000I\000m\000p\000l\000e\000m\000e\000n\000t\000a\000t\000i\000o\000n}{part.2}% 34
\BOOKMARK [1][-]{section.5.1}{\376\377\000T\000o\000o\000l\000\040\000f\000o\000r\000\040\000R\000e\000a\000d\000\040\000P\000a\000n\000e\000l\000\040\000C\000o\000n\000s\000t\000r\000u\000c\000t\000i\000o\000n}{chapter.5}% 35
\BOOKMARK [2][-]{subsection.5.1.1}{\376\377\000T\000h\000e\000\040\000.\000v\000a\000r\000\040\000f\000o\000r\000m\000a\000t}{section.5.1}% 36
\BOOKMARK [2][-]{subsection.5.1.2}{\376\377\000E\000x\000e\000c\000u\000t\000i\000o\000n}{section.5.1}% 37
\BOOKMARK [1][-]{section.5.2}{\376\377\000P\000h\000a\000s\000i\000n\000g\000\040\000A\000l\000g\000o\000r\000i\000t\000h\000m}{chapter.5}% 38
\BOOKMARK [2][-]{subsection.5.2.1}{\376\377\000S\000t\000e\000p\000\040\0001\000:\000\040\000R\000e\000a\000d\000\040\000p\000a\000n\000e\000l\000\040\000c\000o\000n\000s\000t\000r\000u\000c\000t\000i\000o\000n}{section.5.2}% 39
\BOOKMARK [2][-]{subsection.5.2.2}{\376\377\000S\000t\000e\000p\000\040\0002\000:\000\040\000P\000B\000W\000T\000\040\000I\000n\000d\000e\000x\000\040\000c\000o\000n\000s\000t\000r\000u\000c\000t\000i\000o\000n}{section.5.2}% 40
\BOOKMARK [2][-]{subsection.5.2.3}{\376\377\000S\000t\000e\000p\000\040\0003\000:\000\040\000H\000a\000p\000l\000o\000t\000y\000p\000e\000\040\000i\000n\000f\000e\000r\000e\000n\000c\000e}{section.5.2}% 41
\BOOKMARK [1][-]{section.5.3}{\376\377\000C\000o\000m\000p\000u\000t\000a\000t\000i\000o\000n\000a\000l\000\040\000c\000o\000s\000t}{chapter.5}% 42
\BOOKMARK [2][-]{subsection.5.3.1}{\376\377\000D\000i\000s\000c\000u\000s\000s\000i\000o\000n}{section.5.3}% 43
\BOOKMARK [1][-]{section.5.4}{\376\377\000E\000x\000e\000c\000u\000t\000i\000o\000n}{chapter.5}% 44
\BOOKMARK [-1][-]{part.3}{\376\377\000I\000I\000I\000\040\000R\000e\000s\000u\000l\000t\000s}{}% 45
\BOOKMARK [0][-]{chapter.6}{\376\377\000T\000e\000s\000t\000i\000n\000g\000\040\000d\000e\000s\000i\000g\000n}{part.3}% 46
\BOOKMARK [1][-]{section.6.1}{\376\377\000T\000e\000s\000t\000i\000n\000g\000\040\000s\000c\000e\000n\000a\000r\000i\000o\000s}{chapter.6}% 47
\BOOKMARK [1][-]{section.6.2}{\376\377\000D\000a\000t\000a}{chapter.6}% 48
\BOOKMARK [2][-]{subsection.6.2.1}{\376\377\000D\000a\000t\000a\000\040\000s\000o\000u\000r\000c\000e\000s}{section.6.2}% 49
\BOOKMARK [2][-]{subsection.6.2.2}{\376\377\000D\000a\000t\000a\000s\000e\000t\000\040\000s\000i\000m\000u\000l\000a\000t\000i\000o\000n}{section.6.2}% 50
\BOOKMARK [1][-]{section.6.3}{\376\377\000P\000e\000r\000f\000o\000r\000m\000a\000n\000c\000e\000\040\000e\000v\000a\000l\000u\000a\000t\000i\000o\000n}{chapter.6}% 51
\BOOKMARK [2][-]{subsection.6.3.1}{\376\377\000E\000n\000v\000i\000r\000o\000n\000m\000e\000n\000t}{section.6.3}% 52
\BOOKMARK [1][-]{section.6.4}{\376\377\000N\000u\000m\000b\000e\000r\000\040\000o\000f\000\040\000H\000M\000M\000\040\000s\000t\000a\000t\000e\000s}{chapter.6}% 53
\BOOKMARK [0][-]{chapter.7}{\376\377\000R\000e\000s\000u\000l\000t\000s\000\040\000a\000n\000d\000\040\000d\000i\000s\000c\000u\000s\000s\000i\000o\000n}{part.3}% 54
\BOOKMARK [1][-]{section.7.1}{\376\377\000R\000e\000s\000u\000l\000t\000s}{chapter.7}% 55
\BOOKMARK [2][-]{subsection.7.1.1}{\376\377\000S\000c\000e\000n\000a\000r\000i\000o\000\040\0001\000:\000\040\000I\000m\000p\000a\000c\000t\000\040\000o\000f\000\040\000r\000e\000a\000d\000\040\000p\000a\000n\000e\000l}{section.7.1}% 56
\BOOKMARK [2][-]{subsection.7.1.2}{\376\377\000S\000c\000e\000n\000a\000r\000i\000o\000\040\0002\000:\000\040\000N\000u\000m\000b\000e\000r\000\040\000o\000f\000\040\000H\000M\000M\000\040\000s\000t\000a\000t\000e\000s\000\040}{section.7.1}% 57
\BOOKMARK [2][-]{subsection.7.1.3}{\376\377\000S\000c\000e\000n\000a\000r\000i\000o\000\040\0003\000:\000\040\000L\000o\000w\000\040\000c\000o\000v\000e\000r\000a\000g\000e}{section.7.1}% 58
\BOOKMARK [2][-]{subsection.7.1.4}{\376\377\000S\000c\000e\000n\000a\000r\000i\000o\000\040\0004\000:\000\040\000H\000i\000g\000h\000\040\000s\000e\000q\000u\000e\000n\000c\000i\000n\000g\000\040\000e\000r\000r\000o\000r\000\040\000r\000a\000t\000e}{section.7.1}% 59
\BOOKMARK [2][-]{subsection.7.1.5}{\376\377\000R\000e\000a\000d\000\040\000p\000a\000n\000e\000l\000\040\000c\000o\000n\000s\000t\000r\000u\000c\000t\000i\000o\000n}{section.7.1}% 60
\BOOKMARK [1][-]{section.7.2}{\376\377\000D\000i\000s\000c\000u\000s\000s\000i\000o\000n}{chapter.7}% 61
\BOOKMARK [1][-]{section.7.3}{\376\377\000C\000o\000n\000c\000l\000u\000s\000i\000o\000n}{chapter.7}% 62
\BOOKMARK [1][-]{section.7.4}{\376\377\000F\000u\000t\000u\000r\000e\000\040\000w\000o\000r\000k}{chapter.7}% 63
