\relax 
\providecommand\hyper@newdestlabel[2]{}
\catcode `"\active 
\catcode `-\active 
\providecommand\HyperFirstAtBeginDocument{\AtBeginDocument}
\HyperFirstAtBeginDocument{\ifx\hyper@anchor\@undefined
\global\let\oldcontentsline\contentsline
\gdef\contentsline#1#2#3#4{\oldcontentsline{#1}{#2}{#3}}
\global\let\oldnewlabel\newlabel
\gdef\newlabel#1#2{\newlabelxx{#1}#2}
\gdef\newlabelxx#1#2#3#4#5#6{\oldnewlabel{#1}{{#2}{#3}}}
\AtEndDocument{\ifx\hyper@anchor\@undefined
\let\contentsline\oldcontentsline
\let\newlabel\oldnewlabel
\fi}
\fi}
\global\let\hyper@last\relax 
\gdef\HyperFirstAtBeginDocument#1{#1}
\providecommand\HyField@AuxAddToFields[1]{}
\providecommand\HyField@AuxAddToCoFields[2]{}
\select@language{english}
\@writefile{toc}{\select@language{english}}
\@writefile{lof}{\select@language{english}}
\@writefile{lot}{\select@language{english}}
\select@language{english}
\@writefile{toc}{\select@language{english}}
\@writefile{lof}{\select@language{english}}
\@writefile{lot}{\select@language{english}}
\citation{seq6}
\@writefile{toc}{\contentsline {part}{I\hspace  {1em}Introduction}{1}{part.1}}
\citation{ph1}
\citation{ph2}
\citation{ph3}
\citation{ph4}
\citation{ph5}
\citation{dna_sim}
\citation{allele}
\citation{variants}
\citation{idls}
\@writefile{toc}{\contentsline {chapter}{\numberline {1}Background}{3}{chapter.1}}
\@writefile{lof}{\addvspace {10\p@ }}
\@writefile{lot}{\addvspace {10\p@ }}
\@writefile{loa}{\addvspace {10\p@ }}
\@writefile{toc}{\contentsline {section}{\numberline {1.1}Biological background}{3}{section.1.1}}
\@writefile{toc}{\contentsline {subsection}{\numberline {1.1.1}Genetic variation}{3}{subsection.1.1.1}}
\citation{hap1}
\citation{hap2}
\citation{ibd}
\@writefile{lof}{\contentsline {figure}{\numberline {1.1}{\ignorespaces Example of variations which could be classified as SNPs. The SNP on the left side represents a substitution of nucleotide \textit  {C} to \textit  {A}; the SNP on the right side is an example of INDEL, which is an insertion of two nucleotides \textit  {AA}. Note that we illustrate two single \textit  {3'} to \textit  {5'} strands instead of double strands for simplicity.}}{4}{figure.1.1}}
\newlabel{snp}{{1.1}{4}{Example of variations which could be classified as SNPs. The SNP on the left side represents a substitution of nucleotide \textit {C} to \textit {A}; the SNP on the right side is an example of INDEL, which is an insertion of two nucleotides \textit {AA}. Note that we illustrate two single \textit {3'} to \textit {5'} strands instead of double strands for simplicity}{figure.1.1}{}}
\@writefile{toc}{\contentsline {subsection}{\numberline {1.1.2}Haplotype}{4}{subsection.1.1.2}}
\@writefile{toc}{\contentsline {subsection}{\numberline {1.1.3}Genetic recombination}{4}{subsection.1.1.3}}
\newlabel{sec:gen_recomb}{{1.1.3}{4}{Genetic recombination}{subsection.1.1.3}{}}
\citation{g}
\citation{seq6}
\citation{illumina}
\citation{seq6}
\citation{seq6}
\@writefile{lof}{\contentsline {figure}{\numberline {1.2}{\ignorespaces Illustration of a recombination event between two homologous chromosomes (one coming from mother, another from father) happening during meiosis.}}{5}{figure.1.2}}
\newlabel{recomb}{{1.2}{5}{Illustration of a recombination event between two homologous chromosomes (one coming from mother, another from father) happening during meiosis}{figure.1.2}{}}
\@writefile{toc}{\contentsline {subsection}{\numberline {1.1.4}Genome sequencing}{5}{subsection.1.1.4}}
\newlabel{sec:genome_seq}{{1.1.4}{5}{Genome sequencing}{subsection.1.1.4}{}}
\@writefile{lot}{\contentsline {table}{\numberline {1.1}{\ignorespaces Main characteristics of available platforms for genomic data sequencing reported in \cite  {seq6}. \newline  (\textbf  {\textasteriskcentered }) An interval represents range of average values producing by different instruments of the platform; a single value represents average for the platform.}}{6}{table.1.1}}
\newlabel{tab:seq_tech}{{1.1}{6}{Main characteristics of available platforms for genomic data sequencing reported in \cite {seq6}. \newline (\textbf {\textasteriskcentered }) An interval represents range of average values producing by different instruments of the platform; a single value represents average for the platform}{table.1.1}{}}
\@writefile{toc}{\contentsline {section}{\numberline {1.2}Data formats}{6}{section.1.2}}
\newlabel{sec:data_and_formats}{{1.2}{6}{Data formats}{section.1.2}{}}
\newlabel{tab:formats}{{1.2}{8}{Data formats}{section.1.2}{}}
\@writefile{lot}{\contentsline {table}{\numberline {1.2}{\ignorespaces A brief description to the most common bioinformatics file formats. }}{8}{table.1.2}}
\citation{phase_method}
\citation{phase_method2}
\citation{eagle}
\citation{beagle}
\citation{ph1}
\citation{ph1}
\citation{import_phasing}
\@writefile{toc}{\contentsline {chapter}{\numberline {2}Problem statement}{9}{chapter.2}}
\@writefile{lof}{\addvspace {10\p@ }}
\@writefile{lot}{\addvspace {10\p@ }}
\@writefile{loa}{\addvspace {10\p@ }}
\@writefile{toc}{\contentsline {section}{\numberline {2.1}Phasing problem}{9}{section.2.1}}
\newlabel{intro:phasing_problem}{{2.1}{9}{Phasing problem}{section.2.1}{}}
\@writefile{toc}{\contentsline {subsection}{\numberline {2.1.1}The importance of phase information}{9}{subsection.2.1.1}}
\citation{ref_panel}
\citation{ref_panel}
\citation{popbased_stud}
\@writefile{lof}{\contentsline {figure}{\numberline {2.1}{\ignorespaces Toy example illustrating phasing problem input and output. \newline  (\textbf  {\textasteriskcentered }) Note that we do not actually know which hapotype came from the father and which from the mother, but we know that each came from a different parents. That is why alleles of the first ambiguous variant is randomly assigned to one of the haplotypes. }}{10}{figure.2.1}}
\newlabel{fig:gen_hap}{{2.1}{10}{Toy example illustrating phasing problem input and output. \newline (\textbf {\textasteriskcentered }) Note that we do not actually know which hapotype came from the father and which from the mother, but we know that each came from a different parents. That is why alleles of the first ambiguous variant is randomly assigned to one of the haplotypes}{figure.2.1}{}}
\@writefile{toc}{\contentsline {subsection}{\numberline {2.1.2}Ambiguity and Data sources}{10}{subsection.2.1.2}}
\@writefile{lof}{\contentsline {figure}{\numberline {2.2}{\ignorespaces Toy example illustrating how phase information is preserved in reads.}}{11}{figure.2.2}}
\newlabel{fig:reads}{{2.2}{11}{Toy example illustrating how phase information is preserved in reads}{figure.2.2}{}}
\newlabel{sec:read_panel}{{2.1.2}{11}{Read panel}{section*.6}{}}
\newlabel{sec:gmap}{{2.1.2}{11}{Genetic map}{section*.7}{}}
\citation{hap_methods}
\citation{phase_method}
\citation{phase_method2}
\citation{shapeit}
\citation{phase_method2}
\citation{beagle}
\citation{eagle}
\citation{hap_methods}
\citation{eagle}
\citation{pbwt}
\citation{eagle}
\citation{hap_methods}
\citation{rb:hapcut}
\citation{rb:refhap}
\citation{rb:hbop}
\citation{rb:probhap}
\citation{rb:whap}
\citation{rb:hapcol}
\citation{seq:sang}
\citation{rb:whap}
\citation{mec}
\citation{mec}
\citation{rb:whap}
\citation{rb:hapcol}
\@writefile{toc}{\contentsline {section}{\numberline {2.2}Related works}{12}{section.2.2}}
\@writefile{toc}{\contentsline {subsection}{\numberline {2.2.1}Population based phasing}{12}{subsection.2.2.1}}
\citation{shapeit2}
\citation{hapseq}
\citation{phaser}
\citation{shapeit2}
\citation{beagle}
\citation{shapeit2}
\citation{shapeit2}
\citation{rb:hapcut}
\citation{phaser}
\@writefile{toc}{\contentsline {subsection}{\numberline {2.2.2}Read-based phasing}{13}{subsection.2.2.2}}
\@writefile{toc}{\contentsline {subsection}{\numberline {2.2.3}Hybrid phasing}{13}{subsection.2.2.3}}
\citation{rb:whap}
\citation{rb:whap}
\citation{rb:whap}
\citation{rb:hapcol}
\citation{rb:probhap}
\citation{eagle}
\citation{eagle}
\@writefile{toc}{\contentsline {section}{\numberline {2.3}Objectives}{14}{section.2.3}}
\@writefile{toc}{\contentsline {section}{\numberline {2.4}Student contribution}{15}{section.2.4}}
\@writefile{toc}{\contentsline {section}{\numberline {2.5}Outline}{15}{section.2.5}}
\@writefile{toc}{\contentsline {part}{II\hspace  {1em}Materials and Methods}{17}{part.2}}
\citation{listephens}
\citation{hap_methods}
\citation{phase_method}
\citation{shapeit}
\citation{beagle}
\citation{pbwt}
\citation{eagle}
\citation{eagle}
\@writefile{toc}{\contentsline {chapter}{\numberline {3}Eagle2 phasing algorithm}{19}{chapter.3}}
\@writefile{lof}{\addvspace {10\p@ }}
\@writefile{lot}{\addvspace {10\p@ }}
\@writefile{loa}{\addvspace {10\p@ }}
\newlabel{ch:eagle}{{3}{19}{Eagle2 phasing algorithm}{chapter.3}{}}
\@writefile{toc}{\contentsline {section}{\numberline {3.1}Algorithm overview}{19}{section.3.1}}
\@writefile{toc}{\contentsline {subsection}{\numberline {3.1.1}Step 1: HapHedge data structure construction}{19}{subsection.3.1.1}}
\newlabel{sec:haphedge}{{3.1.1}{19}{Step 1: HapHedge data structure construction}{subsection.3.1.1}{}}
\citation{eagle}
\citation{eagle}
\citation{eagle}
\@writefile{toc}{\contentsline {subsection}{\numberline {3.1.2}Step 2: Exploration of diplotype space}{20}{subsection.3.1.2}}
\newlabel{eagle:step2}{{3.1.2}{20}{Step 2: Exploration of diplotype space}{subsection.3.1.2}{}}
\@writefile{toc}{\contentsline {section}{\numberline {3.2}Proposed extension}{20}{section.3.2}}
\citation{shapeit2}
\citation{eagle}
\@writefile{toc}{\contentsline {chapter}{\numberline {4}Hybrid phasing algorithm}{21}{chapter.4}}
\@writefile{lof}{\addvspace {10\p@ }}
\@writefile{lot}{\addvspace {10\p@ }}
\@writefile{loa}{\addvspace {10\p@ }}
\newlabel{HMM}{{4}{21}{Hybrid phasing algorithm}{chapter.4}{}}
\@writefile{toc}{\contentsline {section}{\numberline {4.1}Preliminaries}{21}{section.4.1}}
\@writefile{toc}{\contentsline {section}{\numberline {4.2}Diplotype probability model}{21}{section.4.2}}
\newlabel{dm:model}{{4.1}{21}{Diplotype probability model}{equation.4.2.1}{}}
\citation{listephens}
\citation{eagle}
\citation{shapeit2}
\@writefile{toc}{\contentsline {subsection}{\numberline {4.2.1}Haplotype probability model}{22}{subsection.4.2.1}}
\newlabel{haplotype_model}{{4.2.1}{22}{Haplotype probability model}{subsection.4.2.1}{}}
\newlabel{hm:hap_indep}{{4.2}{22}{Haplotype probability model}{equation.4.2.2}{}}
\newlabel{hm:model}{{4.3}{22}{Haplotype probability model}{equation.4.2.3}{}}
\newlabel{hm:frac}{{4.4}{22}{Haplotype probability model}{equation.4.2.4}{}}
\newlabel{hm:prec}{{4.5}{22}{Recombination probability model}{equation.4.2.5}{}}
\@writefile{toc}{\contentsline {subsection}{\numberline {4.2.2}Read model}{22}{subsection.4.2.2}}
\newlabel{rm:read_set}{{4.6}{22}{Read model}{equation.4.2.6}{}}
\citation{pbwt}
\newlabel{rm:sum}{{4.7}{23}{Read model}{equation.4.2.7}{}}
\newlabel{rm:bq}{{4.8}{23}{Read model}{equation.4.2.8}{}}
\@writefile{toc}{\contentsline {section}{\numberline {4.3}Haplotype inference}{23}{section.4.3}}
\newlabel{sec:hap_inference}{{4.3}{23}{Haplotype inference}{section.4.3}{}}
\@writefile{toc}{\contentsline {subsection}{\numberline {4.3.1}Hidden Markov model}{23}{subsection.4.3.1}}
\newlabel{HMM_inference}{{4.3.1}{23}{Hidden Markov model}{subsection.4.3.1}{}}
\@writefile{toc}{\contentsline {subsection}{\numberline {4.3.2}State space exploration}{23}{subsection.4.3.2}}
\newlabel{HMM:merging}{{4.3.2}{23}{State space exploration}{subsection.4.3.2}{}}
\newlabel{hmm:step}{{4.9}{24}{State space exploration}{equation.4.3.9}{}}
\newlabel{hmm:hm_step}{{4.10}{24}{State space exploration}{equation.4.3.10}{}}
\newlabel{HMM:rm_step}{{4.11}{24}{State space exploration}{equation.4.3.11}{}}
\newlabel{HMM:rm_step2}{{4.12}{24}{State space exploration}{equation.4.3.12}{}}
\newlabel{HMM:states_merging}{{4.13}{24}{State space exploration}{equation.4.3.13}{}}
\newlabel{HMM:read_merging}{{4.14}{24}{State space exploration}{equation.4.3.14}{}}
\@writefile{toc}{\contentsline {chapter}{\numberline {5}Implementation}{25}{chapter.5}}
\@writefile{lof}{\addvspace {10\p@ }}
\@writefile{lot}{\addvspace {10\p@ }}
\@writefile{loa}{\addvspace {10\p@ }}
\newlabel{ch:impl}{{5}{25}{Implementation}{chapter.5}{}}
\@writefile{toc}{\contentsline {section}{\numberline {5.1}Tool for Read Panel Construction}{25}{section.5.1}}
\newlabel{read_tool}{{5.1}{25}{Tool for Read Panel Construction}{section.5.1}{}}
\@writefile{toc}{\contentsline {subsection}{\numberline {5.1.1}The .var format}{26}{subsection.5.1.1}}
\newlabel{sec:var}{{5.1.1}{26}{The .var format}{subsection.5.1.1}{}}
\@writefile{lof}{\contentsline {figure}{\numberline {5.1}{\ignorespaces Example of the \textit  {.var} format.}}{26}{figure.5.1}}
\newlabel{var_format}{{5.1}{26}{Example of the \textit {.var} format}{figure.5.1}{}}
\@writefile{toc}{\contentsline {subsection}{\numberline {5.1.2}Execution}{26}{subsection.5.1.2}}
\citation{pbwt}
\@writefile{toc}{\contentsline {section}{\numberline {5.2}Phasing Algorithm}{28}{section.5.2}}
\@writefile{toc}{\contentsline {subsection}{\numberline {5.2.1}Step 1: Read panel construction}{28}{subsection.5.2.1}}
\@writefile{toc}{\contentsline {subsection}{\numberline {5.2.2}Step 2: PBWT Index construction}{28}{subsection.5.2.2}}
\@writefile{toc}{\contentsline {subsection}{\numberline {5.2.3}Step 3: Haplotype inference}{28}{subsection.5.2.3}}
\@writefile{loa}{\contentsline {algocf}{\numberline {1}{\ignorespaces High level implementation of the hybrid phasing algorithm.}}{29}{algocf.1}}
\newlabel{pseudocode}{{1}{29}{Step 3: Haplotype inference}{algocf.1}{}}
\@writefile{toc}{\contentsline {section}{\numberline {5.3}Computational cost}{29}{section.5.3}}
\newlabel{sec:com_cost}{{5.3}{29}{Computational cost}{section.5.3}{}}
\citation{illumina}
\@writefile{toc}{\contentsline {subsection}{\numberline {5.3.1}Discussion}{30}{subsection.5.3.1}}
\@writefile{toc}{\contentsline {section}{\numberline {5.4}Execution}{31}{section.5.4}}
\@writefile{toc}{\contentsline {part}{III\hspace  {1em}Results}{33}{part.3}}
\citation{sous_genome}
\citation{reads_sim}
\citation{bwa}
\@writefile{toc}{\contentsline {chapter}{\numberline {6}Testing design}{35}{chapter.6}}
\@writefile{lof}{\addvspace {10\p@ }}
\@writefile{lot}{\addvspace {10\p@ }}
\@writefile{loa}{\addvspace {10\p@ }}
\@writefile{toc}{\contentsline {section}{\numberline {6.1}Testing scenarios}{35}{section.6.1}}
\@writefile{toc}{\contentsline {section}{\numberline {6.2}Data}{35}{section.6.2}}
\@writefile{toc}{\contentsline {subsection}{\numberline {6.2.1}Data sources}{35}{subsection.6.2.1}}
\citation{switch_error}
\citation{vcf_spec}
\@writefile{toc}{\contentsline {subsection}{\numberline {6.2.2}Dataset simulation}{36}{subsection.6.2.2}}
\@writefile{toc}{\contentsline {section}{\numberline {6.3}Performance evaluation}{36}{section.6.3}}
\@writefile{toc}{\contentsline {subsection}{\numberline {6.3.1}Environment}{36}{subsection.6.3.1}}
\@writefile{toc}{\contentsline {section}{\numberline {6.4}Number of HMM states}{36}{section.6.4}}
\newlabel{n_hmm_states}{{6.4}{36}{Number of HMM states}{section.6.4}{}}
\@writefile{lof}{\contentsline {figure}{\numberline {6.1}{\ignorespaces Box plots of the relation between the number of HMM states and the switch error rate and time, respectively.}}{37}{figure.6.1}}
\newlabel{fig:hg100_together}{{6.1}{37}{Box plots of the relation between the number of HMM states and the switch error rate and time, respectively}{figure.6.1}{}}
\@writefile{toc}{\contentsline {chapter}{\numberline {7}Results and discussion}{39}{chapter.7}}
\@writefile{lof}{\addvspace {10\p@ }}
\@writefile{lot}{\addvspace {10\p@ }}
\@writefile{loa}{\addvspace {10\p@ }}
\@writefile{toc}{\contentsline {section}{\numberline {7.1}Results}{39}{section.7.1}}
\@writefile{toc}{\contentsline {subsection}{\numberline {7.1.1}Scenario 1: Impact of read panel}{39}{subsection.7.1.1}}
\@writefile{toc}{\contentsline {subsection}{\numberline {7.1.2}Scenario 2: Number of HMM states }{39}{subsection.7.1.2}}
\@writefile{lof}{\contentsline {figure}{\numberline {7.1}{\ignorespaces Box plots of the relation between the read set parameters (length and sequencing error rate) and the switch error rate and time, respectively, for the dataset with depth $15$ and for $P = 100$. }}{40}{figure.7.1}}
\newlabel{fig:all_together}{{7.1}{40}{Box plots of the relation between the read set parameters (length and sequencing error rate) and the switch error rate and time, respectively, for the dataset with depth $15$ and for $P = 100$}{figure.7.1}{}}
\@writefile{toc}{\contentsline {subsection}{\numberline {7.1.3}Scenario 3: Low coverage}{40}{subsection.7.1.3}}
\@writefile{lof}{\contentsline {figure}{\numberline {7.2}{\ignorespaces Box plots of the relation between the read set parameters (length and sequencing error rate) and the switch error rate and time, respectively, for the dataset with depth $15$ and for $P = 100$ and $P = 1000$.}}{41}{figure.7.2}}
\newlabel{fig:diff_nstates}{{7.2}{41}{Box plots of the relation between the read set parameters (length and sequencing error rate) and the switch error rate and time, respectively, for the dataset with depth $15$ and for $P = 100$ and $P = 1000$}{figure.7.2}{}}
\@writefile{toc}{\contentsline {subsection}{\numberline {7.1.4}Scenario 4: High sequencing error rate}{41}{subsection.7.1.4}}
\@writefile{toc}{\contentsline {subsection}{\numberline {7.1.5}Read panel construction}{41}{subsection.7.1.5}}
\@writefile{lof}{\contentsline {figure}{\numberline {7.3}{\ignorespaces Box plots of the relation between the read set parameters (length and sequencing error rate) and the switch error rate and time, respectively, for the dataset with depth $5$ and $15$ and for $P = 100$.}}{42}{figure.7.3}}
\newlabel{fig:lowcov_together}{{7.3}{42}{Box plots of the relation between the read set parameters (length and sequencing error rate) and the switch error rate and time, respectively, for the dataset with depth $5$ and $15$ and for $P = 100$}{figure.7.3}{}}
\@writefile{toc}{\contentsline {section}{\numberline {7.2}Discussion}{42}{section.7.2}}
\@writefile{lof}{\contentsline {figure}{\numberline {7.4}{\ignorespaces Box plots of the relation between the read set parameters (length and sequencing error rate) and $.var$ creation time for the dataset with depth $15$ and $5$, respectively. }}{43}{figure.7.4}}
\newlabel{fig:var_time}{{7.4}{43}{Box plots of the relation between the read set parameters (length and sequencing error rate) and $.var$ creation time for the dataset with depth $15$ and $5$, respectively}{figure.7.4}{}}
\@writefile{lof}{\contentsline {figure}{\numberline {7.5}{\ignorespaces Histogram of distances between the start and end of switch error coordinates in the genome of sample $HG00099$ made by the phasing algorithm when no read panel was given and when a dataset with reads of length $1k$, $5k$ and $10k$ and 1\% sequencing error rate was given. }}{44}{figure.7.5}}
\newlabel{fig:se_dist}{{7.5}{44}{Histogram of distances between the start and end of switch error coordinates in the genome of sample $HG00099$ made by the phasing algorithm when no read panel was given and when a dataset with reads of length $1k$, $5k$ and $10k$ and 1\% sequencing error rate was given}{figure.7.5}{}}
\@writefile{toc}{\contentsline {section}{\numberline {7.3}Conclusion}{44}{section.7.3}}
\bibstyle{amsalpha}
\bibdata{hap_estimation}
\@writefile{toc}{\contentsline {section}{\numberline {7.4}Future work}{45}{section.7.4}}
\bibcite{rb:hapcut}{{BBa}{}{{}}{{}}}
\bibcite{hap_methods}{{BBb}{}{{}}{{}}}
\bibcite{beagle}{{BBc}{}{{}}{{}}}
\bibcite{ph3}{{BBd}{}{{}}{{}}}
\bibcite{mec}{{BDK{$^{+}$}}{}{{}}{{}}}
\bibcite{hap2}{{Boa12}{}{{}}{{}}}
\bibcite{dna_sim}{{Chi}{}{{}}{{}}}
\bibcite{phaser}{{CMC{$^{+}$}}{}{{}}{{}}}
\bibcite{hap1}{{CML16}{}{{}}{{}}}
\bibcite{sous_genome}{{Cona}{}{{}}{{}}}
\bibcite{ref_panel}{{Conb}{}{{}}{{}}}
\bibcite{vcf_spec}{{DAAea}{}{{}}{{}}}
\bibcite{shapeit}{{DCZ}{}{{}}{{}}}
\bibcite{shapeit2}{{DHCea}{}{{}}{{}}}
\bibcite{rb:refhap}{{DHM{$^{+}$}}{}{{}}{{}}}
\bibcite{pbwt}{{Dur}{}{{}}{{}}}
\bibcite{allele}{{FGC}{}{{}}{{}}}
\bibcite{g}{{HC}{}{{}}{{}}}
\bibcite{seq:sang}{{HFB}{}{{}}{{}}}
\bibcite{hapseq}{{HHE}{}{{}}{{}}}
\bibcite{variants}{{HS}{}{{}}{{}}}
\bibcite{illumina}{{Ill}{}{{}}{{}}}
\bibcite{ph5}{{Kea}{}{{}}{{}}}
\bibcite{seq6}{{KGE}{}{{}}{{}}}
\bibcite{rb:probhap}{{Kul}{}{{}}{{}}}
\bibcite{switch_error}{{LCC}{}{{}}{{}}}
\bibcite{bwa}{{LD}{}{{}}{{}}}
\bibcite{eagle}{{LDPea}{}{{}}{{}}}
\bibcite{listephens}{{LS}{}{{}}{{}}}
\bibcite{ph2}{{MHM{$^{+}$}}{}{{}}{{}}}
\bibcite{idls}{{MMPD}{}{{}}{{}}}
\bibcite{import_phasing}{{NLS}{}{{}}{{}}}
\bibcite{rb:whap}{{PMea}{}{{}}{{}}}
\bibcite{rb:hapcol}{{PZD{$^{+}$}}{}{{}}{{}}}
\bibcite{reads_sim}{{SHM{$^{+}$}}{}{{}}{{}}}
\bibcite{phase_method2}{{SS}{}{{}}{{}}}
\bibcite{phase_method}{{SSD}{}{{}}{{}}}
\bibcite{ph4}{{SSEK}{}{{}}{{}}}
\bibcite{popbased_stud}{{Szk}{}{{}}{{}}}
\bibcite{ph1}{{TBT{$^{+}$}}{}{{}}{{}}}
\bibcite{ibd}{{Tho}{}{{}}{{}}}
\bibcite{rb:hbop}{{XWJ}{}{{}}{{}}}
\providecommand\NAT@force@numbers{}\NAT@force@numbers
